Coerce objects of class "krig_lst" to dataframe or tbl (tibble). — as_tibble.krig_lst • fgeo.krig
…
    A dataframe.

    See also

    base::as.data.frame(), tibble::as_tibble().

    Examples

vars <- c("c", "p")
krig <- krig(soil_fake, vars, quiet = TRUE)
#> Guessing: plotdim = c(1000, 460)

as_tibble(krig)
#> # A tibble: 2,300 x 4
#>    var       x     y     z
#>    <chr> <dbl> <dbl> <dbl>
#>  1 c        10    10  2.13
#>  2 c        30    10  2.12
#>  3 c        50    10  2.10
#>  4 c        70    10  2.09
#>  5 c        90    10  2.07
#>  6 c       110    10  2.06
#>  7 c       130    10  2.04
#>  8 c       150    10  2.03
#>  9 c       170    10  2.01
#> 10 c       190    10  2.00
#> # … with 2,290 more rows
…
