Krige soil data following the methodology of the John et al. (2007). — krig • fgeo.krig
…
as_tibble(custom, name = "soil_var")
#> # A tibble: 2,300 x 4
#>    var       x     y     z
#>    <chr> <dbl> <dbl> <dbl>
#>  1 c        10    10  2.29
#>  2 c        30    10  2.31
#>  3 c        50    10  2.22
#>  4 c        70    10  2.04
#>  5 c        90    10  1.79
#>  6 c       110    10  1.54
#>  7 c       130    10  1.55
#>  8 c       150    10  1.64
#>  9 c       170    10  1.77
#> 10 c       190    10  1.89
#> # … with 2,290 more rows
…
