Krige soil data • fgeo.krig
…
as_tibble(auto)
#> # A tibble: 1,250 x 4
#>    var       x     y     z
#>    <chr> <dbl> <dbl> <dbl>
#>  1 m3al     10    10  950.
#>  2 m3al     30    10  944.
#>  3 m3al     50    10  939.
#>  4 m3al     70    10  933.
#>  5 m3al     90    10  928.
#>  6 m3al    110    10  922.
#>  7 m3al    130    10  917.
#>  8 m3al    150    10  911.
#>  9 m3al    170    10  906.
#> 10 m3al    190    10  900.
#> # … with 1,240 more rows
…
Iterate over multiple soil variables

soil <- fgeo.krig::soil_fake
soil
#> # A tibble: 30 x 5
#>       gx    gy    mg     c     p
#>    <int> <int> <dbl> <dbl> <dbl>
#>  1    40   193  0.67  1.75  6.5 
#>  2    56    30  0.5   2.25  5.90
#>  3    61   102  0.65  2.05  6.40
#>  4    67   110  0.5   2.35  6.40
#>  5   113    16  0.56  1.45  6.20
#>  6   173   134  0.74  1.55  7   
#>  7   239   252  0.47  0.85  5.90
#>  8   257   442  0.52  2.25  6.20
#>  9   283   288  0.45  0.45  6.7 
#> 10   294   181  0.7   2.45  7.1 
#> # … with 20 more rows
…
Transform krig results to a tibble for easier manipulation and visualization.

# as.data.frame(krig_list) also works but is hader to visualize
(krig_df <- as_tibble(krig_list))
#> # A tibble: 3,450 x 4
#>    var       x     y       z
#>    <chr> <dbl> <dbl>   <dbl>
#>  1 mg       10    10 -0.319 
#>  2 mg       30    10 -0.226 
#>  3 mg       50    10 -0.137 
#>  4 mg       70    10 -0.0535
#>  5 mg       90    10  0.0256
#>  6 mg      110    10  0.100 
#>  7 mg      130    10  0.170 
#>  8 mg      150    10  0.235 
#>  9 mg      170    10  0.296 
#> 10 mg      190    10  0.352 
#> # … with 3,440 more rows
…
